<?xml version="1.0" encoding="utf-8"?>
<!-- Generator: Adobe Illustrator 21.1.0, SVG Export Plug-In . SVG Version: 6.00 Build 0)  -->
<svg version="1.0" id="Ebene_1" xmlns="http://www.w3.org/2000/svg" xmlns:xlink="http://www.w3.org/1999/xlink" x="0px" y="0px"
	 viewBox="0 0 456.5 279.5" style="enable-background:new 0 0 456.5 279.5;" xml:space="preserve">
<style type="text/css">
	.st0{fill:#154265;}
	.st1{fill:#79ACD8;}
</style>
<metadata><?xpacket begin="﻿" id="W5M0MpCehiHzreSzNTczkc9d"?>
<x:xmpmeta xmlns:x="adobe:ns:meta/" x:xmptk="Adobe XMP Core 5.6-c137 79.159768, 2016/08/11-13:24:42        ">
   <rdf:RDF xmlns:rdf="http://www.w3.org/1999/02/22-rdf-syntax-ns#">
      <rdf:Description rdf:about=""
            xmlns:dc="http://purl.org/dc/elements/1.1/"
            xmlns:xmp="http://ns.adobe.com/xap/1.0/"
            xmlns:xmpGImg="http://ns.adobe.com/xap/1.0/g/img/"
            xmlns:xmpMM="http://ns.adobe.com/xap/1.0/mm/"
            xmlns:stRef="http://ns.adobe.com/xap/1.0/sType/ResourceRef#"
            xmlns:stEvt="http://ns.adobe.com/xap/1.0/sType/ResourceEvent#"
            xmlns:illustrator="http://ns.adobe.com/illustrator/1.0/"
            xmlns:xmpTPg="http://ns.adobe.com/xap/1.0/t/pg/"
            xmlns:stDim="http://ns.adobe.com/xap/1.0/sType/Dimensions#"
            xmlns:xmpG="http://ns.adobe.com/xap/1.0/g/"
            xmlns:pdf="http://ns.adobe.com/pdf/1.3/">
         <dc:format>image/svg+xml</dc:format>
         <dc:title>
            <rdf:Alt>
               <rdf:li xml:lang="x-default">SUTP_Logo_141020_Pfade</rdf:li>
            </rdf:Alt>
         </dc:title>
         <xmp:MetadataDate>2018-03-19T15:19:59+01:00</xmp:MetadataDate>
         <xmp:ModifyDate>2018-03-19T15:19:59+01:00</xmp:ModifyDate>
         <xmp:CreateDate>2018-03-19T15:19:58+01:00</xmp:CreateDate>
         <xmp:CreatorTool>Adobe Illustrator CC 2017 (Macintosh)</xmp:CreatorTool>
         <xmp:Thumbnails>
            <rdf:Alt>
               <rdf:li rdf:parseType="Resource">
                  <xmpGImg:width>256</xmpGImg:width>
                  <xmpGImg:height>148</xmpGImg:height>
                  <xmpGImg:format>JPEG</xmpGImg:format>
                  <xmpGImg:image>/9j/4AAQSkZJRgABAgEASABIAAD/7QAsUGhvdG9zaG9wIDMuMAA4QklNA+0AAAAAABAASAAAAAEA&#xA;AQBIAAAAAQAB/+4ADkFkb2JlAGTAAAAAAf/bAIQABgQEBAUEBgUFBgkGBQYJCwgGBggLDAoKCwoK&#xA;DBAMDAwMDAwQDA4PEA8ODBMTFBQTExwbGxscHx8fHx8fHx8fHwEHBwcNDA0YEBAYGhURFRofHx8f&#xA;Hx8fHx8fHx8fHx8fHx8fHx8fHx8fHx8fHx8fHx8fHx8fHx8fHx8fHx8fHx8f/8AAEQgAlAEAAwER&#xA;AAIRAQMRAf/EAaIAAAAHAQEBAQEAAAAAAAAAAAQFAwIGAQAHCAkKCwEAAgIDAQEBAQEAAAAAAAAA&#xA;AQACAwQFBgcICQoLEAACAQMDAgQCBgcDBAIGAnMBAgMRBAAFIRIxQVEGE2EicYEUMpGhBxWxQiPB&#xA;UtHhMxZi8CRygvElQzRTkqKyY3PCNUQnk6OzNhdUZHTD0uIIJoMJChgZhJRFRqS0VtNVKBry4/PE&#xA;1OT0ZXWFlaW1xdXl9WZ2hpamtsbW5vY3R1dnd4eXp7fH1+f3OEhYaHiImKi4yNjo+Ck5SVlpeYmZ&#xA;qbnJ2en5KjpKWmp6ipqqusra6voRAAICAQIDBQUEBQYECAMDbQEAAhEDBCESMUEFURNhIgZxgZEy&#xA;obHwFMHR4SNCFVJicvEzJDRDghaSUyWiY7LCB3PSNeJEgxdUkwgJChgZJjZFGidkdFU38qOzwygp&#xA;0+PzhJSktMTU5PRldYWVpbXF1eX1RlZmdoaWprbG1ub2R1dnd4eXp7fH1+f3OEhYaHiImKi4yNjo&#xA;+DlJWWl5iZmpucnZ6fkqOkpaanqKmqq6ytrq+v/aAAwDAQACEQMRAD8A9U4q8I/NP/nIv9G3c2i+&#xA;T/TnuYiUuNXcCSJHHVYF+y5H8zfD4A9czcOlveTh5tVW0Xg+uec/NmuytJq+rXV4Wr8EkremK9lj&#xA;BCKPYDM2OOMeQcGWWUuZSXJtaeaJ53836HIr6TrF3acTURpKxjO9fijYlG+kZCWOJ5hsjlkORe2/&#xA;l1/zkx600WnedIkj5kLHrEC8VBP+/wCIdP8AWT/ge+YeXSdYubi1d7Se/QzQzwpNC6ywyqHjkQhl&#xA;ZWFQykbEEZguaxz8y7u6s/y/8wXVpNJb3UNjM8M8TFJEYLsyspBBHiMswi5hrymon3Pjz/lYv5g/&#xA;9TPq3/Sdc/8ANebXwodwdT4s+8vT/wDnHfzd5r1X8wGtdU1q/v7X6jM/oXVzNNHyDJRuLswqK9cx&#xA;9VCIhsHK0k5GW56PpnNc7B2KvGP+cmNf13R9G0STSNRutOkluJVle0mkgLAICAxjZajMvSRBJsOL&#xA;q5ERFF8/f8rF/MH/AKmfVv8ApOuf+a8zvCh3B1/iz7y+nv8AnHzVtV1X8vI7vVLye/ujdzqbi5le&#xA;aTivGg5uWNBmu1MQJ7Oz0xJgLeJ/nB52852H5k65Z2Ov6jaWkMyCK3gu5440BhQ0VFcKNz2zMwY4&#xA;mAsBwtRkkJkAlhv/ACsX8wf+pn1b/pOuf+a8t8KHcGnxZ95d/wArF/MH/qZ9W/6Trn/mvHwodwXx&#xA;Z95d/wArF/MH/qZ9W/6Trn/mvHwodwXxZ95d/wArF/MH/qZ9W/6Trn/mvHwodwXxZ95d/wArF/MH&#xA;/qZ9W/6Trn/mvHwodwXxZ95Z1+SHnTzjqX5oaLZajruo3lnL9a9W2uLueWJuNpMy8kdypowBG3XK&#xA;dRjiIEgBv0+SRmASXvX5y39/p/5Z65eWFzLaXcUcRiuIHaKRCZ4weLoQw2NNswsABmLc7MagafJf&#xA;/KxfzB/6mfVv+k65/wCa82fhQ7g6rxZ95d/ysX8wf+pn1b/pOuf+a8fCh3BfFn3l3/KxfzB/6mfV&#xA;v+k65/5rx8KHcF8WfeUfZ/m9+ZlpIJIvMd6zA1pM/rr/AMDKHX8MBwQPRmNRPvZ75T/5yg8y2csc&#xA;PmWzi1O0rSS5gUQXIB78R+6anhxX55RPRg8tm6GsP8QfQ3ljzTofmfSItW0a5W5tJNj2eNwAWjkU&#xA;7qwr0/hmBOBiaLnxmJCwm2RZOxV2KvPPz3823Hlv8vbuS0cx3upOthbyqaMnqhmkYd6+mjAHsSDl&#xA;+mhxTaNRPhg+Oc2zqGc/lp+UvmDz5NM9pIllplqwS5v5gWAcivCNB9t6bkVAHc7jKcucQ97fhwGf&#xA;uepv/wA4nWXoUTzJKLj+c2ilP+BEoP8Aw2Y3509zlfkh3vNPPn5I+dPKED30saajpSbvfWnJhGPG&#xA;WMgMg99198yMeojLbq42XTSjvzDz7L3HfS//ADjFqfnGXSbqxvbaSTy1F8Wm30ppwl5UeGLlu6Hc&#xA;/Dspr45rtWI3Y5uy0hlW/J6R+a3/AJLbzJ/2z5/+IHKMP1hyM30H3PiDNw6V61/zjJ/5Ml/+2fP/&#xA;AMTjzF1f0OXo/r+D6vzWOzdirwn/AJyu/wCOHoH/ADFTf8mxmbouZcPW/SPe+bM2DrX1p/zjV/5L&#xA;KP8A5jLj9a5q9X9bttL9AYl+Yv8Azj55z8y+dNU1yxvdOjtL6RXiSeWdZAFjVPiCwuvVexy3Fqox&#xA;iAbac2mlKRIpjn/QrP5g/wDVw0n/AJHXP/ZPln5yHcWv8nPvDFvzA/J3zN5G062v9WubKeG6m9CN&#xA;bR5XYNxL1IkiiFKL45biziZoNWXTygLLBMuaGfeQfyX80+eNHm1bSbqxgt4LhrV0upJkcuiJISBH&#xA;FKONJR3yjLqIwNFvxaeUxYZN/wBCs/mD/wBXDSf+R1z/ANk+V/nIdxbfyc+8Mp/K/wDILzj5U886&#xA;Zr+o3mnS2dn6/qx28k7Sn1beSJeIeGNftSCvxdMrzamMokC2zDppRkCaeg/np/5KnzB/xjh/6iI8&#xA;x9P9YcjP9BfGObd07Mfy5/LHWPPlxfQ6bdW9s1gkbyG5LgMJCwHHgr/y5VlzCHNvw4TO2c/9Cred&#xA;P+rrpv8AwU//AFSyj85HuLd+SPexnzX+Q35h+XLSS9ltYtQs4V5TT2DmXgtKkmN1jkoO5C7ZZDUw&#xA;ls1z0s4i+bzvMhxnp/8Azj950udB89W2mvIf0ZrbC0niJPETNtA4Fftc/h+THMbU4+KN9Q5WlyVK&#xA;uhfXWat2jsVdirxP/nKqKZvKGkSrX0U1Di+37TQvx3/2JzM0f1FxNZ9I975izYusfSH/ADjJ530N&#xA;NFn8q3UyW2qC5e4tFchRcJIqghCftSKV+z1pSnQ01+rxm+Lo7LSZBXD1e85hOY06I6MjqGRgVZWF&#xA;QQdiCDiryL/oW7yi/nSfWZnJ0RyJotEQcEExJLqXB/uhsVUeNOg3yvzUuGurjflY8V9O561b21vb&#xA;QR29tEkFvCoSKGNQiIqigVVWgAHgMxSbcljP5rf+S28yf9s+f/iBy3D9Ya830H3PiDNw6V61/wA4&#xA;yf8AkyX/AO2fP/xOPMXV/Q5ej+v4Pq/NY7N2KvCf+crv+OHoH/MVN/ybGZui5lw9b9I975szYOtf&#xA;Wn/ONX/kso/+Yy4/WuavV/W7bS/QHquYzkOxV4l/zlV/yiOj/wDbQ/5kvmZo/qLiaz6R73zHmxdY&#xA;+pv+cWf/ACX2of8AbWm/6hrfNbrPrHudno/oPvex5iOW7FWCfnp/5KnzB/xjh/6iI8u0/wBYac/0&#xA;F8Y5t3Tve/8AnE//AI6fmP8A4w23/E5MwtbyDn6Lq+js17nuIBFD0xV8O/mbpdppf5ga/Y2iqlrD&#xA;eS+jGn2UVzzCD2XlTNzhNwBdPnjUyEp8uSPF5h0uWM8ZEu4GRh2IlUg5KfIsMf1D3vvjNI7t2Kux&#xA;VjX5i+TYPOHlG+0R2Ec0qiSzmPSOeM8o2PXYn4W/yScsxZOCVteSHFEh8Va3oeq6Hqc+l6rbPa31&#xA;uxWWJx9xU9GU9mGxzbxkJCw6icDE0UCCQajYjockxZ15b/O38yNAVIoNVa8tUoBbXwFwtB0Adv3q&#xA;j2VxlE9PCXRvhqZx6vTvLv8AzlXA3GPzForRn9q5sH5D/kTLQj/kYcx5aPuLkx1o6h695T/MHyh5&#xA;riLaHqUdzKo5SWprHOg7lono9N/tAU98xZ4pR5hyoZIy5FkWVs2K/mt/5LbzJ/2z5/8AiBy3D9Ya&#xA;830H3PiDNw6V61/zjJ/5Ml/+2fP/AMTjzF1f0OXo/r+D6vzWOzdirwn/AJyu/wCOHoH/ADFTf8mx&#xA;mbouZcPW/SPe+bM2DrX1p/zjV/5LKP8A5jLj9a5q9X9bttL9Aeq5jOQ7FXiX/OVX/KI6P/20P+ZL&#xA;5maP6i4ms+ke98x5sXWPqb/nFn/yX2of9tab/qGt81us+se52ej+g+97HmI5bsVYJ+en/kqfMH/G&#xA;OH/qIjy7T/WGnP8AQXxjm3dO9v8A+cYNZ0fTNR19tSvrexWWG3EbXMqQhiGkrx5la0rmHrIkgU52&#xA;jIFvoD/G/kv/AKv+m/8ASXB/zXmD4cu4udxjvY35s/O78vfL1nLIupw6peqD6NlYuszM/g0ico0F&#xA;evI/QemWQ085dKa554R6vkLXNXu9Z1m91a7IN1fzyXE3H7IaRixA9hWgzaRjQp1M5cRtOvyw0KXX&#xA;PP8AoenohdDdxzXFBWkMDerKT/sEOQzSqJLZgjcw+4c07uHYq7FXYqx7zh5A8qeb7QW+uWKzugpB&#xA;dL8E8X+pIPipvXiar4jLIZZR5MJ44yG7xLzP/wA4r6jEzzeWtWjuI61W0vgY5APASxhlY/NVzMhr&#xA;B1Dhz0X80vL/ADD+Vn5geX+TalolysKbtcQr68IHiZIS6j6cyI5oy5FxpYJx6MUy1pVrS8u7O5ju&#xA;rSZ7e5hYPFPExR0YdCrLQg4CLSCRuH1T+Rf5vTebrWTRNaYfp6yj9RZxQC5hBClyBQB1JHKnXr45&#xA;rdRg4dxydpp8/GKPNmH5rf8AktvMn/bPn/4gcqw/WG3N9B9z4gzcOletf84yf+TJf/tnz/8AE48x&#xA;dX9Dl6P6/g+r81js3Yq8J/5yu/44egf8xU3/ACbGZui5lw9b9I975szYOtfWn/ONX/kso/8AmMuP&#xA;1rmr1f1u20v0B6rmM5DsVeJf85Vf8ojo/wD20P8AmS+Zmj+ouJrPpHvfMebF1j6m/wCcWf8AyX2o&#xA;f9tab/qGt81us+se52ej+g+97HmI5bsVYJ+en/kqfMH/ABjh/wCoiPLtP9Yac/0F8Y5t3TuxV2Ku&#xA;xVG6RourazfR2OlWkt7dymiQwqXb5mnQDuTsMjKQAssowMjQfVv5K/lCvkqyk1LUysvmK+QJLxIZ&#xA;LeKvL0kYfaJIBdumwA6VOt1GfjNDk7TBg4Bvzen5jOQ7FXYqo3l5aWVrJd3k8dtawrymnlYIiKO7&#xA;MxAAwgWpLzzSfz68lat51g8tWLO8VwGSLVH+CF7gfZiRWHIh9wGNN6AA1rl8tNIRstEdREy4Q9Jz&#xA;Hb3YqwX8wPyd8o+b7Sd3tY7HWWBMOqQKFfn29VVoJR48t/AjLsWeUfc05cMZ+98b31nPY3txZXAA&#xA;ntZXhlANQHjYq1D8xm2BsW6mQo0yz8nNRnsPzN8vSwkgy3a27gd0uAYmB+h8qzi4Ft05qYfWv5iW&#xA;v1vyD5jtwvJn0274KO7iFivT/KAzWYjUh73aZBcSPJ8L5uXSPUf+cb7+G1/M+2ikIBvLW4gjJNPi&#xA;4iX9URzG1Q9DlaQ+t9cZq3aOxV8/f85YajF6Pl3TgwMxa5uJF7qoCIh/2RLfdmdohzLha07APnfM&#xA;91z67/5xxtZIfyus5H6XNxcypt+yJDH+uM5q9UfW7bS/QHp2YzkOxV4l/wA5Vf8AKI6P/wBtD/mS&#xA;+Zmj+ouJrPpHvfMebF1j6m/5xZ/8l9qH/bWm/wCoa3zW6z6x7nZ6P6D73seYjluxVgn56f8AkqfM&#xA;H/GOH/qIjy7T/WGnP9BfGObd071T8h/y68t+db3V4dbWZkso4Xg9GT0zWRnDV2Nfs5janKYAU5el&#xA;xRndvYR/zjV+WVf7u8P/AEcH/mnMT83Ny/ysO5MrL8gfyptW5/ob12BqDNcXDj5cfUC/eMidTM9U&#xA;jTQHRmmk6Houj2/1bSbC3sIDSsdtEkQJG1W4gVPucqlInm3CIHJHZFLsVdirsVfNX/OT+nebIdYt&#xA;L2e8muPLFyAtrbjaGC4VfiRlUAFmHxKzb9R0XNhozGq6uv1glz/heGo7o6ujFXUgqwNCCOhBzNcJ&#xA;7/8Alv8A85Kpb2sWmec0kkMYCR6xCObFRt/pEf2iR/OtSfCu+YOXSdYufi1fST12z/Nj8tbyEyxe&#xA;ZLBVA5UmmWBqf6kvBq+1MxThmOjlDNDvDGfOP/OQvkXRrCb9E3S6zqnEi3ggDeiH7GSUgLx/1ST+&#xA;vLMelkTvsGvJqYxG275Nu7qe7u5ru4bnPcSNLM/i7ksx+knNmBTqibNs/wDyD8vT6x+ZemyKlbbT&#xA;OV9cvTZREKR9e5lZco1MqgfNyNLG5+59hSxRyxPFIoeORSroehVhQg5qnavhPzp5ZufLPmnUtDuA&#xA;a2czLE525xH4on/2SEHN1jnxRBdLlhwyIS7S9TvdL1K11KxkMN5ZypPbyD9l0PJTTv06ZIgEUWMZ&#xA;EGw+p/KH/OR3kbVbGIa5MdG1MALPG6SPAz92jkQPRf8AXpT365rZ6WQO24dnDVRPPYpprX5/flhp&#xA;tq8seqfpCcCqWtpHI7MfDkyrGPpbIR00z0ZS1EB1fL35g+eNR86eZZ9avV9JWAitLUHksMCE8UB7&#xA;nclj3JObLFjEBTrcuUzlaQWtrcXdzDa20ZluLh1ihiUVZnc8VUDxJOTJprAs0+6vJfl5PLvlTStE&#xA;WhaxtkjlZejS05SsP9aQsc02SXFIl3cI8IATrIMnYq8S/wCcqv8AlEdH/wC2h/zJfMzR/UXE1n0j&#xA;3vmPNi6x9Tf84s/+S+1D/trTf9Q1vmt1n1j3Oz0f0H3vY8xHLdirBPz0/wDJU+YP+McP/URHl2n+&#xA;sNOf6C+Mc27p3vf/ADif/wAdPzH/AMYbb/icmYWt5Bz9F1fR2a9z3Yq7FXYqwT8xdW1OxvbNLO6k&#xA;t1eNiwjYqCQ3embHRY4yBsW6/WZJRIo0xH/FHmL/AKuNx/yMbM3wIdwcP8xPvKfeSdc1i78xQQXN&#xA;5NNCyyFo3ckGiEjY5jarFGMCQHI0uWUp0SzvzBoGleYNHudI1WET2N0vGVDsR3DKR0ZTuDmsjIxN&#xA;h2cogii+UvzJ/IvzP5Tnlu7CKTVdBqWS6iXlLEvhPGoqKfzgcfl0zZ4tRGXPYusy6aUeW4eZ5kOK&#xA;7FXYqn3lLyP5n82XwtNEsXuDUCW4I4wRA95JT8K7dup7A5CeSMRu2Y8Up8n1v+Vv5aad5E0M2sbi&#xA;51O6Kyaje0pzcDZEHURpU0r7nvTNXmymZ8na4cQgKZplLa80/OT8oYPO9kl9YMtv5hs04W8j7RzR&#xA;1r6UhFaUJJVu3fY7ZGDPwGjycfPg4x5vlLXfLuuaBfvYazZS2V0hP7uVacgP2kb7LL7qaZs4yEhY&#xA;dZOBiaKXZJg7FVeysb2+uo7SygkubqU8YoIVLux8Aqgk4CQObIRJ2D6T/JL8jbjQbqPzL5njX9KI&#xA;K6fp9Qwtywp6shFVMlPsgfZ6/a+zr9RqOLaPJ2On0/Dueb2/MNy3Yq7FXiX/ADlV/wAojo//AG0P&#xA;+ZL5maP6i4ms+ke98x5sXWPqb/nFn/yX2of9tab/AKhrfNbrPrHudno/oPvex5iOW7FWCfnp/wCS&#xA;p8wf8Y4f+oiPLtP9Yac/0F8Y5t3Tve/+cT/+On5j/wCMNt/xOTMLW8g5+i6vo7Ne57sVdirsVec/&#xA;ml/vfY/8Ym/4lm00H0l1mv5hhOZ7gMj/AC+/5Si3/wBSX/iBzF1n92XK0f8AeB6zmmdw7FWM67+W&#xA;fkHXXaTVNDtZpnNXnRPRlY/5UkJjc/ScsjmlHkWEsUZcwxt/+cdvyqZyw02VATUKt1PQewq5OWfm&#xA;p97V+Vx9yYab+R/5Wae6yRaDFNIve5eW4Bp4pK7p/wALkTqJnqyGngOjNLSzs7K3S2s4I7a2jFI4&#xA;IUWNFHgqqABlRNt1K2BXYq7FULqWk6VqlsbXU7OC+tjuYbiNJUr/AKrgjCJEckEA82G3X5F/lRdS&#xA;epJ5fjVjvSKa5hXf/JjkRfwy0aiY6tR08D0WRfkL+UsTh10BSR0D3N24/wCBaYjD+Zn3oGmgOjLN&#xA;E8r+XNCiMejaZbWCkUY28SIzD/KYDk30nKpTMuZbYxA5BM8iydirsVdiqC1XQ9E1iFIdW0+21GGN&#xA;uccd3DHOqtSnILIGAND1wxkRyKJRB5pX/wAq6/L7/qWNJ/6Qbb/mjJ+LPvLDwodwTXStF0fSLdrb&#xA;SbC30+3dzI8NrEkCFyApYrGFHKigV9shKRPNnGIHJGYEuxVQvrCw1C0ks7+2iu7SUAS286LLG4BB&#xA;HJHBU7iu+EEjkgi+aS/8q6/L7/qWNJ/6Qbb/AJoyfiz7yw8KHcEw0ny15c0dpH0jSrPTmmAEzWlv&#xA;FAXC9AxjVa0r3yMpk8yyjADkExyLJ2KuxV2Koe603Trtla7tYbhlFFMsauQPbkDkozlHkaYyhGXM&#xA;Wof4f0D/AKttr/yIj/5pyXjT/nH5sfBh3D5KlvpGk20omt7KCGUVAkjiRGFdjuADglkkRRJSMcRu&#xA;AEXkGbsVdirsVdirsVdirsVdirsVdirsVdirsVdirsVdirsVdirsVdirsVdirsVdirsVdirsVdir&#xA;sVdirsVSHUfMd0NRfTNJsjfXkQBuGLCOKPluKsep9syIYBw8UjQceeY8XDEWVFfNOo2VzFDr2n/U&#xA;op24R3cbiSIMezU+z9+S/LxkLgbrojxzE1MV5skzFcl2KuxV2KrJpRFDJKwqI1LEDrRRXCBZpBNI&#xA;fStRi1LT4b6JWSOYEqr05ChI3pXwyWSBjIgscc+KNhF5Bm7FUGl/K2qvYm1lWNIvVF4QfSJqBwBp&#xA;9rfJmHpu/gw4/VVfFGZBm7FXYq7FUu1XWPqFzYQej6n16YQcuXHhX9qlDXLcePiBPcGvJk4SB3lM&#xA;cqbFDULv6nYXN3x5/V4nl4Vpy4KWpWhpWmShHikB3sZy4QT3LdMvfr2nW15w9P6xGsnp15ceQrSt&#xA;BXDkjwyI7kQlxRB70TkGbsVQGvar+idJn1D0vW9Hh+65cK83Cfao383hlmHHxyEWvLk4ImSLt5fW&#xA;t4pacfURX49achWmQkKNMwbCA1nWv0bcafF6Pq/Xrhbfly48ORA5dDXr0y3Fi4gTfIW15MvCR5mk&#xA;zyltdiqXeX9Y/S+lx3/o+h6hYeny504sV60Xw8MtzY+CVNWHJxxtMcqbXYq7FXYq7FWIvLe+W9b1&#xA;C7ltJLrS9QdZTcQjk0TCtQy+Hxf59MzQBlgADUouGSccyauJTa31Xy35ggNsssdyrUZraSqt8Jr9&#xA;lqHY+GUnHkxm+TcMkMgrms806pdaXZ2b2nFTLdRQMCtRwZWJAH+xw6fGJk33Iz5DACu9O8x29jWi&#xA;+ZbqTypNrF4olmh9Q8UHEHjsozLy4AMgiHFxZicfEVtqnnO7sor+LULVTOgljtfSqlGFQpfdsZHF&#xA;E8NFY+KRdhF3/wDiG40NXrDZXfpubuIj1FK0OykdK5CHAJ9SOjOXGYdxQHkiDXP0ZYSNcwnTeL/u&#xA;OB9SlWA+P/W3yzVGHEdvU16UT4Rv6Uddyearu+lgski0+zhPEXUwEryd6ogNKfP+zK4jHEWfUWyR&#xA;yE0Ngo2Opa3Z6/FpGqSxXSXUbSW1xGvptVKkqV6dAclOEJQ4o7UxjOUZ8Mt7RMOrXb+bp9LJX6pH&#xA;aCdRT4ufJR1/2WROMeEJdbZDIfE4elJedb8xz6/qOl2EcTLAY+E8uyxKy1YsBuxPYZZ4WMQEpNfi&#xA;zMzENz3/AJj0fULEajcxXtleyrbsVjEbI7dCKdsRDHOJ4RRCmc4EcRsHZNdYuddEsVrpVuhaUFpL&#xA;yY/uowO3EfEWOU4ow5yPwbshnyiPilGpXvmfQo4r+8u4b6y9RUuYliEbKrftKR1pl0I48mwFFpnL&#xA;Jj3JsL/Oss0VzoskERnmS7rHCDTk1NhU9K46UAiV9ydSSDGu9UuIvPMcDXaXVq8qjmbBYzxoN+Ic&#xA;/ETkQcJNUfekjLV2Pcqvq8WreTb29ReBe0nEkfXi6xsGH9MHh8GUDzCTk48RPkVtlqsGleS7S+mH&#xA;JYraPig2LMQAq/fjLGZ5SB3ojkEMQJ7lNI/PMtt9c+sW0MrDmunmOop1CM9a1yROEGqPvQBlIux7&#xA;k10HV01XTY7sJ6UlSk0R6pIpowynNj4JU3YsnHG0B58/5RS+/wCeX/J5Ms0n94Px0a9X/dn8dU40&#xA;/wD3gtv+MSf8RGUT+ot0eQY/5x/3v8v/APbQi/4kuZOm+mf9Vx9Tzj/WVPM3mDUNL1PToLWL11uh&#xA;IGgAHJ2FAgDdviO+DBhjOJJ2pOfMYSAG9o7SYfMQmabVLiExuh42kKbIxII+M7mgqMryHHVRB97Z&#xA;jE7uRDGvJw8yXGhwwWDRWVpEz1upF9V5GLk0VOgA6GuZep8MTJluXF03GYADYJxpmr6tbayNG1n0&#xA;5JJkMlndxDiHC1JVh2NBlE8cTDjh8Q3QySEuGXwKvey+aLm/ktrCOOytIqVvZh6jSEiv7tAaU375&#xA;GAxgXLc9zKRyE0Nh3oa31DXdP12103VJo7yC/V/QuET02V4xUggbUyUoQlAyjsQxE5xmIy3trUtb&#xA;1uLzIdL0+BLgPaiRA/wqjl6GR2G/EDsMYYoHHxSNbonlmJ8IF7KGq3vmvRIE1G6uoLy0V1W4t0j9&#xA;MhWNPhbqfpyeOOPIeEAgoySyQHESCE60vXbbULm8tVRobizkMbxSU5FRsHAHY5j5MRiAehboZRIk&#xA;dQlXnXSNLGlT6kEW2v7ejw3MfwOX5CgJFK1y7S5JcQjzBatTjjwmXIhC+aZppvLehzz7TSXNrJNt&#xA;SjNExb5bnJ6cAZJAdxYZyTCJPeGXTTRQxNLM4jiQVd2NAAO5JzCAJNBzCa5sW8i/Vf8ACDC7KC2L&#xA;yib1CAnE7HlXtmZq78Xbm4mlrwt+SsfKE9oC+h6pPZj7SW7n1YK9fsnt9+R/MiX1xB+9l+XI+iRH&#xA;3K+javcap5cuZrlVFxEJoZSn2WKL9ofOuRy4xDIAOWzLFkMoEnmqeSj/AM6vYf6jf8TbBqv7wp03&#xA;92EFay6l5jurtkvHsdKtZmt1jt6LNIyUJZnIqo37ZZIRxAbXI77sImWQneojZBHTdP0/z1pENqzN&#xA;IY5mnLyNI5PpPQtyJpk+OUsMifJrMIxzRrzR1t/5MO7/AO2eP+Jplcv7gf1mwf3x/qt6D/yl/mD/&#xA;AJ4f8Qxzf3UPiuL+9n8Hed/+lP8A9tCL+OOl/i/qrqv4f6wVtWv9Tudbj0PT5RaVg+sXN2QGcJy4&#xA;8UB2r75HHCIhxy33qmWScjPgjttaS+c9B06x0J55bia5vi6CKW5mZ2J5DlxWoX7PtmRpc0pTqgB5&#xA;Bo1OKMYXZJ8ymvm+WOK+0KSVgka3gLOxoAKDcnKdMLjL3N2oNGPvZHJJHHG0jsFjQFmcmgAAqSTm&#xA;KBbkksN0FWPkfWZqERXH1yWEEU+Ax8f1qczs399Ed1ODi/upHvtT1mJ3/L7TXFeEIt5JSvULTjUf&#xA;S2HEf35+K5B+5HwTeLy5PLEksevX7xyAMjCRaEEVBHw5Qc4G3DFuGEn+KSK8s2FhZWlwlldteI9w&#xA;7TSMVYiWgVwSoHhkc85SIsVsywQEQaN7rPOlvJP5Yv44xVgivQeEbq7fguHSmsgRqY3jKM0O7hu9&#xA;Is54WDI0SA03owUBlPuDtleWJjIgs8UhKIISXzS63Gv6DYxnlOlyLl1G5VIyDU/PifuzI04qEz0q&#xA;mjPvOI87Xa9/yl/l/wD57/8AEMGH+6n8E5f72HxZNmI5TGvy8lify1CisGeN5BIoO6kuSK/Qcy9a&#xA;P3ji6M/uw1rhE/m/QoIjWaATTTU7IVFK/PiRji2xSJ8ly75Yj3uSbVNe1G+giu3sNNsZjbt6FBPI&#xA;67MeZrxHhTEiOOINXI7+SgyySIuojbzQV1pem6d5s0OO2dnuHadrgyStJIRwHAtyJpX4u2WRySlj&#xA;lfLZhKEY5I1z3TCP/wAmBL/2zR/yeXKj/c/536Gwf33+b+l35gf8ovc/60X/ACcGOj/vAur/ALso&#xA;zVvK+najcLd8pbW+XYXVu3CTbpXrXIY9RKIrmO4s8mCMjfI+SGj8mWTTpNqF3dal6ZrHFdSc4wfH&#xA;jQZI6o1UQI+5iNMLsky96a6rpVnqdk9ndqWhehqpoykdGU+IynHkMDYbcmMTFFLIPJ1mGj+uXd1q&#xA;EMVDFb3MnKIEdCVAFae+XHUnoAPc1DTjqSfeirDy5ptnpLaVRp7NyxdZiCTyNeqhfoyE88pS4uRZ&#xA;wwxjHh6IEeS4FT0ItTv4rM7fVlm+AD+UVHT2yz80eZjG/c1/lhyBlXvTmx02ysbJbK2jCW6gjh1r&#xA;XrUnrXKJzMjZ5t8YCIocku0vyra6ZdLNa3l2sCFmWyMtYKsCDVKb9ajfrluTUGYoge/q1QwCJsE+&#xA;7opzeULVrua5tb27sfrLF7iO2l4IzHcmlDQ4RqTQBANd6DpxZIJF9ypa+UtJtb21vYBIlxbFzz5B&#xA;jIZBxYylgWbY7bjIy1MiCDyKY6eIII5hGJo9qmsyauGf6zJD6DISOHEEGoFK1+HxyByng4ejMYxx&#xA;cXWnWmj21rqV5qEbOZr3h6qsRxHAUHEAA/ecZZSYiPcscYEjLvdquj22pfVvXZ1+qzLPHwIFWToG&#xA;qG2xx5TC66rkxiVX0KH1by3aajdRXnrTWt7CvBLi3fg3GteJ2O25yWPOYitiPNjkwiRvkUJN5I0m&#xA;4gkS6mubmeWgN3NJzlUAg0QkFV6U+z0yY1UgdqA7mB0sSN7PmmGq6DY6oLZbwu6Wz8wtRRzShD7d&#xA;D7UyvHmMLrq25MQnV9EufyTZMoha+vTYj/jxMxMVB+z0rxy380edC++mr8sOVmu604k021bTX05F&#xA;9K1eJoOMexVGUrtWu9DlAmeLi6txgOHh6Ot9NtYdNTTqGW2SIQ8ZKEsgFPioAMZTJlxdVjACPD0S&#xA;ceSrVFaGDUL2CyYmtmk1I6HqoqCaZf8AmjzIjffTT+WHIE13WndjYWlhapa2kYigjFFUfrJ7k5jz&#xA;mZGy3xgIigrkAggioOxByLJjr+SbFJnksLy704SGrxW0pRCflT+OZQ1Rr1AS97jHSi9iY+5G6P5a&#xA;07S5HniMk93KKSXU7c5CPCu2V5c8p7dGePDGG/VXu9HtrrUrPUJGcTWXP0lUjieYoeQIJ+45GOUi&#xA;Jj3spYwZCXcjsrbGOQ+RtMtoUWzubq1nSoNzFIFkcE1o9AFIFfDMo6uRO4BcYaWIGxIR+j+XbDS5&#xA;JJo2knu5tpbqducjDwrttleXMZ7cg2Y8Ihv1Q915StZL6W8tru6sJbg1uBbScFc+JFDvko6ggUQD&#xA;XexlpwTYJF9zcPlDSYLq1u4zKLq2dpDOX5PKzAA+qzAk7DtTE6mRBHQqNPEEHqEcuk2w1htVDP8A&#xA;WGg+rFKjhw5B60pWtR45X4h4eHpdtnhji4utU7WNJttWsHsrhnSKQqS0ZAb4SCOoYdvDHFkMJWFy&#xA;YxMUUoe389ojOb6yooJ/u27fRlwlh7i01l7wgtFvPOurafHfQ3dpHHIWAV4zX4SV7A+GWZY4oSog&#xA;teKWWcbBDKdOS/SzjW/dJLsV9R4gQh+I0oD/AJNMw5mN+nk5cLrfmiMiydirsVdirsVdirsVdirs&#xA;VdirsVdirsVUL6dreyuLhQC0MTyKD0JVSd/uyUBZAYyNAlDaBqMupaPbX0qqkkyksq1oKMRtWvhk&#xA;80BGRAY4p8UQUwypsYrcaj5muvMl/punTwQxWixsPWQk0dFJ3Fe5zMjDGMYlIHdxDPIZmMa2Xznz&#xA;7ZoZ+VnfIgq8CBlcgdeP2d/pwDwZbbhJ8Yb7FOND1iDV9NivYVKB6h4zuVddiK5RlxmEqLdiyCcb&#xA;CPytsdirsVQWqyatHFCdMijllMqiYSmgEVDyYfEu/TLMYjfqYZDL+FG5WzdirsVdirsVSjQtZn1G&#xA;51OKVFQWNy9vGVrVlUkVNT12y/LiERE94acWQyJ8imlx/cSf6rfqykc208mP/l//AMovbf60v/Jw&#xA;5k6z+8Lj6T+7CXWt55m1HWtV060ufRtopyGumAcxICQEjXxb+GWyjjjCMiN65NcZZJSlEHa+adGw&#xA;1zT9JeDT7k319JLX17xieCtQEgb/AGaVp/tGjjhKVyFDybuCcY1E2fNBTeW9XEDTzeYblboAkMCI&#xA;4A1OhQGlMmM8boQFfawOGVWZm/sVdE1q7v8AyhLfStS7jimUyLtVo1NGp49MGXEI5a6bJxZTLHfV&#xA;AaFD5l1vSreW51F7O14kK0NPXlIY/Ez/ALPgKZZlOPHIgCz9jXiGScQSaH2ojSpdT03zOdGuLyS+&#xA;tZrf6xC828ikEihbv9k5HIIzx8YFG2WMyjk4SbFLLma/1fzNeaWNQk0+2s0QpHAQkspZQS3LrtXD&#xA;ERhjEq4iVJM8hjdAJjpuk65YX6j9JNe6ayn1EuRymUgfDxcdfeuVTyQlH6al5NkMc4nncfNL9cvN&#xA;ePmy307TLgRLNac25gFE+Nw0nHuwA2yzFGHhmUh1a8sp+IIxPR2oaJ5g0+1k1Cy1i4ubmAepJBPR&#xA;o3Vd2Cp0XbGGWEjwmIAWeKcRxCRJR7eaIF8rDXOH2k2hr/u3lw418OX4ZX+XPicDZ448PjQVpoPm&#xA;C/t0vL/WLi2upQHS3t/gjjBFQrKPtUyyWaETUYghrjinIWZEFE+XNW1Br670bVGWS+s6Ok6iglia&#xA;lGp0qKj78hnxxoTjyLPDklZjLmErtb3zLqGtatptpcejBFOeV24DejGCQEjX+Zv4ZdKOOMIyI3rk&#xA;0xlklOUQevNH6hoN9Dodwn6XuZGRZpZHchi4MYHpmtaL8PbxyqGYGY9I6Ns8RED6ioeStLvP0XYX&#xA;n6Rm9CjH6lRfTpyYU8ffJ6rIOIit+9jpoHhBv4MszCcthJ1zTdJ87axJfSGNJY4FQhWapEaH9kHM&#xA;/wAKU8Ma83B8WMMsr8kwm8/6M0bLYLLeXZB9KBI2BLdq1HTKxo5/xbBsOrj/AA7lA/VdT0HyDcOX&#xA;MF+XWZitKoZJUWnh9nrlnFHJmHc11LHhPf8AtRdhp/mPVoYLy+1CSxhYK0Vpb/CxXY1kcEGrDqMh&#xA;OeOBIAvzLZGE5iya8m7q71bWtbuNN0+5NlYWFBd3KD940h/YU9uhGMYxxwEpCyeSylKczGJoDmoa&#xA;guteWfTv1vptR0wOqXcNyecihjTmr/PDDgy+muGXSmM+LFvfFHraO836lc21hp81lMY/XvIULr+1&#xA;G6safI0GV6aAMiCOjPUTIAI7wreZ9Yu7KO2tLAA6jqEnpW5bdVG3Jz8qjBgxCVmX0hlnyGNAfUUF&#xA;ceX/ADBbWzXdtrVxPfxrzMUlDC5G5UIdlrkxmgTRiK+1gcMwLEjf2IuPzTCfKv6cZNwnxRDp6vLh&#xA;x+XL8MgdOfE4GQzjw+NBWeh+YNRtkvb7WLi1uZgJEt7f4I4w24UrX4tssllhE0IgjzYRxTkLMiD5&#xA;IvS08wXOn3en6jI9vcwOqQ6lGAPUSobkoPsKHbv45DIYCQlHcdzOAmQRLY96ReWtHv57vWFi1Se3&#xA;MN46SMgWsjBj8bV7nMjPliBH0g7OPgxkmXqPNnNx/cSf6rfqzXjm555Mf/L/AP5Re2/1pf8Ak4cy&#xA;dZ/eFx9J/dhZ5T/47XmL/mKH/G+HUfRD3IwfVP3orzVqt5ZQ2lvZFY7q/nW3jmehWPlsWoe++Q0+&#xA;MSJJ5AWzz5DEADmTSkPKeiwobrVZHvpUHKS5u5CVHj8NQoGH8xM7R29yPy8RvLf3pd5S/wCUDuv9&#xA;S5/4ict1P98Pg1af+5PxTfyV/wAovYf6jf8AE2ynVf3hbtN/dhB3P/kw7T/tnn/ib5OP9wf6zA/3&#xA;w/qo7U9C0DWp39WjXltRHlhfjKh6gNT8KjK8eWeMbciznihM78wlJXVPL2s6dbLfyXun38no+hcH&#xA;lIh2FQ3Wgrl3pyxJqpDuavVjkBdg96tezRRfmHZeo4TnY8F5GlWLyUHzOCAJwH+smRrMP6qf6pdw&#xA;2mnXNxOwWOONia99th8ydsxscTKQAcmcgIklg8thc/8AKtIDxNUf6wyeMZkPX2o3LNgJj8wfk4Bg&#xA;fA+1nlndwXlrFdQNyimUOhHgc10omJouwjIEWGOafIt559vriAhobS1EEki9DIWBp+B+7MqY4cIB&#xA;6lxYHizEjoKX+U/+O15i/wCYof8AG+DUfRD3JwfVP3p3rH/HJvf+YeX/AIgcx8f1D3t+T6T7kv8A&#xA;JJB8r2FDX4WG3tI2W6r+8LXpv7sJ3mO3sX0xEfz1rfNQ1IoKVFf91pmZkP7mPxcTGP3svgydURBR&#xA;VCjwApmHblpD58/5RS+/55f8nkzJ0n94Px0cfV/3Z/HVONP/AN4Lb/jEn/ERlE/qLdHkGO+V5Ftv&#xA;MGu2E3wXElwbmJT+1HIS1R8gRmVqBcIyHKqcbAanKJ53aI893MUXl2eA7zXRSKCMdWbmDsPYDIaS&#xA;NzB7mWqlUCO9BeboXg0HRYH+3FdWqN81jYHLNMbnI+RYagVCI8w152t4zq2iz3Ejw2hkeGWeNuDI&#xA;XA4nl2x0p9MgOa6keqJPJMD5QswpY6jfhQKkm5NKfdlf5k90fk2flx3y+aU6xp2nr5EmTRpWntEc&#xA;TciakgPR+y9OuXYpy8b17FpyQj4J4eTLdOvIL2xguoCDFKgZadBtuPo6ZhTiYkguZCQkAQsstVsb&#xA;2e5gtnLvaOI5jQ8Qx7Buh6b4ZYzEAnqiOQSJA6JH5OI/SPmBf2hfyEj2LNTMjU/TD+q0abnL+syZ&#xA;1DoynowIP05iBykHo+k22k2CWVuzvFGWIaQgt8RJPQKO/hlmXIZyssMeMQFBrT9HtrC6vbmFnZ76&#xA;T1Zg5BAbf7NANt++M8pkAD0RDGIkkdWtZ0Wx1e0FtdhuKsHjkQ8XRhtVTvjiymBsLkxCYopfD5Os&#xA;uate3d3qKoapFdSl4wR0+Hav05adSegEfc1jTDqTL3ozT/L9lY6bcadC8ht7gyFuRUsvqjiQtFAp&#xA;4VyueYykJHmGcMQjExHIonS9Og02whsoGZooQQrOQWNSTvQAd/DI5JmUrLKEBEUFN9HtX1mPVyz/&#xA;AFmOH0FQEcOJJNSKVr8XjhGU8HD0QcY4uLrSD1Hypp93dm9ikmsbxvtz2r+mW/1uoycNRKIo0R5s&#xA;J6eMje4Pk7TvKtjZ3i3ss099eIKRz3UnqFR0+HpjPUGQoAAeSwwCJvcnzSrWtOs9Q8829rdx+pC+&#xA;nmo6EESPQgjoRl+KZjhJH85pyQEsoB/mo3/BFi8ifW728vLeMhktp5i0Yp7UGV/mj0AB9zZ+VHUk&#xA;j3sgMURi9IovpFeHp0HHjSlKeFMxr3tyKY83kiyRnFnfXllbyEl7aCbjHv1oCD+OZP5o9QCXH/Kj&#xA;oSB7030rSLDS7UW1nHwjryYk1Zm/mYnqcoyZDM2W7HjEBQW6fo9tYXV7cws7PfSerMHIIDb/AGaA&#xA;bb98M8pkAD0RDGIkkdUayq6lGFVYEMD0IOVtiSab5Rs9Ou1mtbu7SFGLrZ+rWCpBG6036+OZE9SZ&#xA;CiB7+rjw04ibBPu6J5mO5CBt9HtYNWutURnNxeKiyqSOACAKOIpX9nxyyWUmIj0DXHGBIy70dlbY&#xA;hNW0u31TT5bG4Z1hm48mjIDfCwYUJDDqvhk8eQwlYYZMYnGiiIYlihSJalY1CgnrRRTIk2bZAUl2&#xA;seXNP1SSOeQyQXcW0V3A3CRR4V75bizyht07mvJhjPfqh7DyjYW94l7cz3GoXUf91JdSepw91H9c&#xA;lPUkigBEeTGGnANkknzQPny4ga30+3WRTcC/hYxAgvTi2/Hr+0Ms0gNk9OEteqIoD+kGRX+n2l/a&#xA;va3cYlgk+0p/AgjoRmLCZibDkzgJCika+R7TiIZNRvpbIdLNpv3dP5aADbMj82edRvvpx/yo5XKu&#xA;60/htLaG2W1ijVbdF4LEB8PHpSmY5kSbPNyREAV0SFvI9iruLS9vLK3lNZLaCXjGa9diD+OZH5s9&#xA;QCXH/KjoSAnGl6XZaZaLa2cfCIbnuzMerMe5yjJkMzZboYxEUEtvPJ9jPfS3sN1dWUtx/vQLWX0w&#xA;/wA9jlsdSQKIBrvapacE2CRfcnuY7kOxV2KuxV2KuxV2KuxV2KuxVAv+iP0zHz4fpX0f3dft+jU9&#xA;PatcsHFwf0Wv08X9JHZW2OxV2KuxV2KuxV2KuxV2KuxV2KuxV2KuxVKZf8M/pwer6H6Y+Hjzp6nT&#xA;4aV706d8uHicG18LSeDj3riTbKW52KuxV2KuxV2Kv//Z</xmpGImg:image>
               </rdf:li>
            </rdf:Alt>
         </xmp:Thumbnails>
         <xmpMM:InstanceID>xmp.iid:24d3551a-fde8-4e42-8081-f316670e922e</xmpMM:InstanceID>
         <xmpMM:DocumentID>xmp.did:24d3551a-fde8-4e42-8081-f316670e922e</xmpMM:DocumentID>
         <xmpMM:OriginalDocumentID>uuid:5D20892493BFDB11914A8590D31508C8</xmpMM:OriginalDocumentID>
         <xmpMM:RenditionClass>proof:pdf</xmpMM:RenditionClass>
         <xmpMM:DerivedFrom rdf:parseType="Resource">
            <stRef:instanceID>uuid:3b55b29b-4654-9f49-a5f3-b5197c828f12</stRef:instanceID>
            <stRef:documentID>xmp.did:aeb3985d-7cac-4d98-9777-79dce80bffc5</stRef:documentID>
            <stRef:originalDocumentID>uuid:5D20892493BFDB11914A8590D31508C8</stRef:originalDocumentID>
            <stRef:renditionClass>proof:pdf</stRef:renditionClass>
         </xmpMM:DerivedFrom>
         <xmpMM:History>
            <rdf:Seq>
               <rdf:li rdf:parseType="Resource">
                  <stEvt:action>saved</stEvt:action>
                  <stEvt:instanceID>xmp.iid:0180117407206811822ACA6161D6D376</stEvt:instanceID>
                  <stEvt:when>2014-09-12T20:50:55+02:00</stEvt:when>
                  <stEvt:softwareAgent>Adobe Illustrator CS6 (Macintosh)</stEvt:softwareAgent>
                  <stEvt:changed>/</stEvt:changed>
               </rdf:li>
               <rdf:li rdf:parseType="Resource">
                  <stEvt:action>saved</stEvt:action>
                  <stEvt:instanceID>xmp.iid:24d3551a-fde8-4e42-8081-f316670e922e</stEvt:instanceID>
                  <stEvt:when>2018-03-19T15:19:59+01:00</stEvt:when>
                  <stEvt:softwareAgent>Adobe Illustrator CC 2017 (Macintosh)</stEvt:softwareAgent>
                  <stEvt:changed>/</stEvt:changed>
               </rdf:li>
            </rdf:Seq>
         </xmpMM:History>
         <illustrator:StartupProfile>Print</illustrator:StartupProfile>
         <xmpTPg:HasVisibleOverprint>False</xmpTPg:HasVisibleOverprint>
         <xmpTPg:HasVisibleTransparency>False</xmpTPg:HasVisibleTransparency>
         <xmpTPg:NPages>1</xmpTPg:NPages>
         <xmpTPg:MaxPageSize rdf:parseType="Resource">
            <stDim:w>161.043056</stDim:w>
            <stDim:h>98.601389</stDim:h>
            <stDim:unit>Millimeters</stDim:unit>
         </xmpTPg:MaxPageSize>
         <xmpTPg:PlateNames>
            <rdf:Seq>
               <rdf:li>Cyan</rdf:li>
               <rdf:li>Magenta</rdf:li>
               <rdf:li>Yellow</rdf:li>
               <rdf:li>Black</rdf:li>
            </rdf:Seq>
         </xmpTPg:PlateNames>
         <xmpTPg:SwatchGroups>
            <rdf:Seq>
               <rdf:li rdf:parseType="Resource">
                  <xmpG:groupName>Standard-Farbfeldgruppe</xmpG:groupName>
                  <xmpG:groupType>0</xmpG:groupType>
                  <xmpG:Colorants>
                     <rdf:Seq>
                        <rdf:li rdf:parseType="Resource">
                           <xmpG:swatchName>Weiß</xmpG:swatchName>
                           <xmpG:mode>CMYK</xmpG:mode>
                           <xmpG:type>PROCESS</xmpG:type>
                           <xmpG:cyan>0.000000</xmpG:cyan>
                           <xmpG:magenta>0.000000</xmpG:magenta>
                           <xmpG:yellow>0.000000</xmpG:yellow>
                           <xmpG:black>0.000000</xmpG:black>
                        </rdf:li>
                        <rdf:li rdf:parseType="Resource">
                           <xmpG:swatchName>Schwarz</xmpG:swatchName>
                           <xmpG:mode>CMYK</xmpG:mode>
                           <xmpG:type>PROCESS</xmpG:type>
                           <xmpG:cyan>0.000000</xmpG:cyan>
                           <xmpG:magenta>0.000000</xmpG:magenta>
                           <xmpG:yellow>0.000000</xmpG:yellow>
                           <xmpG:black>100.000000</xmpG:black>
                        </rdf:li>
                        <rdf:li rdf:parseType="Resource">
                           <xmpG:swatchName>C=56 M=22 Y=4 K=0 1</xmpG:swatchName>
                           <xmpG:mode>CMYK</xmpG:mode>
                           <xmpG:type>PROCESS</xmpG:type>
                           <xmpG:cyan>56.000000</xmpG:cyan>
                           <xmpG:magenta>22.000000</xmpG:magenta>
                           <xmpG:yellow>4.000000</xmpG:yellow>
                           <xmpG:black>0.000000</xmpG:black>
                        </rdf:li>
                        <rdf:li rdf:parseType="Resource">
                           <xmpG:swatchName>C=97 M=71 Y=35 K=25 1</xmpG:swatchName>
                           <xmpG:mode>CMYK</xmpG:mode>
                           <xmpG:type>PROCESS</xmpG:type>
                           <xmpG:cyan>97.000000</xmpG:cyan>
                           <xmpG:magenta>71.000000</xmpG:magenta>
                           <xmpG:yellow>35.000000</xmpG:yellow>
                           <xmpG:black>25.000000</xmpG:black>
                        </rdf:li>
                     </rdf:Seq>
                  </xmpG:Colorants>
               </rdf:li>
               <rdf:li rdf:parseType="Resource">
                  <xmpG:groupName>Graustufen</xmpG:groupName>
                  <xmpG:groupType>1</xmpG:groupType>
                  <xmpG:Colorants>
                     <rdf:Seq>
                        <rdf:li rdf:parseType="Resource">
                           <xmpG:swatchName>C=0 M=0 Y=0 K=100</xmpG:swatchName>
                           <xmpG:mode>CMYK</xmpG:mode>
                           <xmpG:type>PROCESS</xmpG:type>
                           <xmpG:cyan>0.000000</xmpG:cyan>
                           <xmpG:magenta>0.000000</xmpG:magenta>
                           <xmpG:yellow>0.000000</xmpG:yellow>
                           <xmpG:black>100.000000</xmpG:black>
                        </rdf:li>
                        <rdf:li rdf:parseType="Resource">
                           <xmpG:swatchName>C=0 M=0 Y=0 K=80</xmpG:swatchName>
                           <xmpG:mode>CMYK</xmpG:mode>
                           <xmpG:type>PROCESS</xmpG:type>
                           <xmpG:cyan>0.000000</xmpG:cyan>
                           <xmpG:magenta>0.000000</xmpG:magenta>
                           <xmpG:yellow>0.000000</xmpG:yellow>
                           <xmpG:black>79.998800</xmpG:black>
                        </rdf:li>
                     </rdf:Seq>
                  </xmpG:Colorants>
               </rdf:li>
            </rdf:Seq>
         </xmpTPg:SwatchGroups>
         <pdf:Producer>Adobe PDF library 15.00</pdf:Producer>
      </rdf:Description>
   </rdf:RDF>
</x:xmpmeta>
                                                                                                    
                                                                                                    
                                                                                                    
                                                                                                    
                                                                                                    
                                                                                                    
                                                                                                    
                                                                                                    
                                                                                                    
                                                                                                    
                                                                                                    
                                                                                                    
                                                                                                    
                                                                                                    
                                                                                                    
                                                                                                    
                                                                                                    
                                                                                                    
                                                                                                    
                                                                                                    
                           
<?xpacket end="w"?>
	</metadata>
<g>
	<path class="st0" d="M49.9,111.3l14.8-8.8c4.9,9.8,13.8,15.2,24.1,15.2c9,0,15.5-3.4,15.5-10.2c0-6.7-6.4-9.6-18.1-12.9
		c-15.9-4.5-32.5-8.5-32.5-27.2c0-16.6,13-26.6,32.1-26.6c18.3,0,29.1,8.8,35.4,18.3l-13.6,10.4c-4.7-7.6-13.2-12.6-21.9-12.6
		c-8.3,0-12.9,3.6-12.9,8.9c0,7.1,6.6,9.6,18.3,12.9c15.6,4.2,32.3,9.1,32.3,27.6c0,14.3-10.8,27.1-35.6,27.1
		C68.6,133.2,56.6,124.1,49.9,111.3z"/>
	<path class="st0" d="M135.2,97.5v-55h19.6V97c0,12.9,4.9,20.1,16.6,20.1c11.6,0,16.4-7.1,16.4-20.1V42.5H207v54.9
		c0,21.9-11.1,35.6-35.9,35.6C146.4,133,135.2,119.3,135.2,97.5z"/>
	<path class="st0" d="M243.9,58.8h-26.5V42.5h72.7v16.4h-26.6v72.7h-19.6V58.8z"/>
	<path class="st0" d="M301.9,42.5h32.4c19,0,36.4,5.1,36.4,28.5c0,24-18.8,28.9-36.6,28.9h-12.6v31.7h-19.5V42.5z M334.8,84.7
		c12.2,0,16.7-4.7,16.7-13.2c0-8.3-4.5-13-16.7-13h-13.4v26.2H334.8z"/>
	<path class="st1" d="M376.5,109.9h24.9v21.7h-24.9V109.9z"/>
	<path class="st1" d="M48.1,182.2l2.7-1c1.4,4.4,4.6,6.7,9.1,6.7c4.8,0,7.9-2.2,7.9-5.8c0-3.3-1.6-5-8.3-7.1
		c-6.8-2.1-10.3-4-10.3-9.2c0-4.6,4.1-8.2,9.9-8.2c6,0,9.4,3.1,10.9,7.3l-2.6,1.2c-1.6-4.1-4.4-5.8-8.4-5.8c-4.3,0-6.8,2.3-6.8,5.2
		c0,3.6,2.1,4.8,8.8,6.9c6.6,2.1,9.9,4.3,9.9,9.5c0,5.3-4.7,8.7-11,8.7C53.8,190.6,49.6,187.4,48.1,182.2z"/>
	<path class="st1" d="M76.7,183.8v-16.4h3v15.9c0,3.2,1.4,4.7,4.5,4.7c2.9,0,5.3-1.5,7.9-4v-16.6h3V190h-3v-3.6
		c-2.2,2.1-5.1,4-8.6,4C79,190.5,76.7,188,76.7,183.8z"/>
	<path class="st1" d="M100.3,186.4l1.9-1.7c1.7,2,3.9,3.3,7,3.3c3.9,0,5.9-1.4,5.9-4c0-2.5-1.8-3.5-6.2-4.5
		c-5.2-1.3-7.9-2.7-7.9-6.6c0-3.2,2.8-5.9,7.7-5.9c3.9,0,6.4,1.3,8.4,3.3l-1.7,2c-1.7-1.7-3.9-2.8-6.6-2.8c-3.5,0-4.9,1.6-4.9,3.4
		c0,2.2,1.5,3.1,5.5,4c5.7,1.4,8.6,2.8,8.6,7.2c0,4.1-3.7,6.5-8.8,6.5C105.2,190.5,102.1,188.7,100.3,186.4z"/>
	<path class="st1" d="M124.8,184.7v-14.8h-4v-2.5h4v-8.1h3v8.1h5.9v2.5h-5.9v14.2c0,2.4,0.8,3.7,3.6,3.7c0.9,0,1.7-0.1,2.4-0.3v2.5
		c-0.7,0.1-1.9,0.3-2.9,0.3C126.4,190.3,124.8,188.7,124.8,184.7z"/>
	<path class="st1" d="M137.6,184.7c0-4.5,3.8-7.7,15.3-9.5v-1.2c0-3.1-1.6-4.6-4.6-4.6c-3.6,0-6.1,1.5-8.5,3.6l-1.6-1.9
		c2.7-2.5,5.8-4.2,10.3-4.2c5.1,0,7.3,2.7,7.3,7.2v10.3c0,2.8,0.2,4.4,0.6,5.6h-3.1c-0.3-0.9-0.5-1.9-0.5-3.2
		c-2.6,2.4-5.5,3.6-8.9,3.6C139.9,190.4,137.6,188.3,137.6,184.7z M152.9,184.4v-7c-9.7,1.6-12.4,4-12.4,7c0,2.4,1.6,3.6,4.1,3.6
		C147.8,188,150.6,186.6,152.9,184.4z"/>
	<path class="st1" d="M162.6,159h3.1v3.2h-3.1V159z M162.7,167.4h3V190h-3V167.4z"/>
	<path class="st1" d="M172.8,167.4h3v3.6c2.2-2.1,5.1-4,8.6-4c4.5,0,6.7,2.5,6.7,6.7V190h-3v-15.8c0-3.2-1.4-4.7-4.5-4.7
		c-2.9,0-5.4,1.5-7.9,4V190h-3V167.4z"/>
	<path class="st1" d="M196.4,184.7c0-4.5,3.8-7.7,15.3-9.5v-1.2c0-3.1-1.6-4.6-4.6-4.6c-3.6,0-6.1,1.5-8.5,3.6l-1.6-1.9
		c2.7-2.5,5.8-4.2,10.3-4.2c5.1,0,7.3,2.7,7.3,7.2v10.3c0,2.8,0.2,4.4,0.6,5.6h-3.1c-0.3-0.9-0.5-1.9-0.5-3.2
		c-2.6,2.4-5.5,3.6-8.9,3.6C198.7,190.4,196.4,188.3,196.4,184.7z M211.7,184.4v-7c-9.7,1.6-12.4,4-12.4,7c0,2.4,1.6,3.6,4.1,3.6
		C206.6,188,209.4,186.6,211.7,184.4z"/>
	<path class="st1" d="M224.2,186.9v3.1h-3v-31.8h3v12.5c1.8-2,4.2-3.7,7.6-3.7c5.2,0,9.3,3.8,9.3,11.7c0,7.9-4.2,11.7-9.6,11.7
		C228.6,190.4,226.3,189,224.2,186.9z M238.2,178.7c0-6.3-3.1-9.2-6.9-9.2c-2.8,0-4.9,1.5-7,3.7v11c2.2,2.4,4.4,3.7,7,3.7
		C235.3,187.9,238.2,185.1,238.2,178.7z"/>
	<path class="st1" d="M247,158.2h3V190h-3V158.2z"/>
	<path class="st1" d="M255.8,178.7c0-8,5.2-11.7,9.9-11.7c5.3,0,9.2,4,9.2,11.8v0.6h-16.2c0,5.6,3.2,8.7,7.1,8.7
		c3.4,0,5.3-1.5,7-4.1l1.8,1.5c-2,3.2-4.8,5.2-9.1,5.2C260.4,190.5,255.8,186.4,255.8,178.7z M272.1,176.9c-0.3-4.3-2.4-7.5-6.4-7.5
		c-3.3,0-6.3,2.4-6.9,7.5H272.1z"/>
	<path class="st1" d="M290.6,179.3v-21.1h3.1v20.5c0,5.2,2.6,9.1,8.6,9.1c5.9,0,8.5-3.7,8.5-9v-20.6h3.1v21
		c0,6.3-3.9,11.4-11.6,11.4C294.4,190.6,290.6,185.6,290.6,179.3z"/>
	<path class="st1" d="M321,167.4h3v4.5h0.1c1.8-2.8,4.5-4.9,9-4.9h0.5l-0.3,2.8c0,0-0.8,0-0.9,0c-3.7,0-6.6,2.1-8.4,5.6V190h-3
		V167.4z"/>
	<path class="st1" d="M341,186.9v3.1h-3v-31.8h3v12.5c1.8-2,4.2-3.7,7.6-3.7c5.2,0,9.3,3.8,9.3,11.7c0,7.9-4.2,11.7-9.6,11.7
		C345.3,190.4,343,189,341,186.9z M354.9,178.7c0-6.3-3.1-9.2-6.9-9.2c-2.8,0-4.9,1.5-7,3.7v11c2.2,2.4,4.4,3.7,7,3.7
		C352,187.9,354.9,185.1,354.9,178.7z"/>
	<path class="st1" d="M361.7,184.7c0-4.5,3.8-7.7,15.3-9.5v-1.2c0-3.1-1.6-4.6-4.6-4.6c-3.6,0-6.1,1.5-8.5,3.6l-1.6-1.9
		c2.7-2.5,5.8-4.2,10.3-4.2c5.1,0,7.3,2.7,7.3,7.2v10.3c0,2.8,0.2,4.4,0.6,5.6h-3.1c-0.3-0.9-0.5-1.9-0.5-3.2
		c-2.6,2.4-5.5,3.6-8.9,3.6C364,190.4,361.7,188.3,361.7,184.7z M377,184.4v-7c-9.7,1.6-12.4,4-12.4,7c0,2.4,1.6,3.6,4.1,3.6
		C371.9,188,374.7,186.6,377,184.4z"/>
	<path class="st1" d="M386.6,167.4h3v3.6c2.2-2.1,5.1-4,8.6-4c4.5,0,6.7,2.5,6.7,6.7V190h-3v-15.8c0-3.2-1.4-4.7-4.5-4.7
		c-2.9,0-5.4,1.5-7.9,4V190h-3V167.4z"/>
	<path class="st1" d="M58.1,203.9H47.2v-3h25.1v3H61.4v30.8h-3.2V203.9z"/>
	<path class="st1" d="M71.3,210.6h3.2v4.8h0.1c1.9-3,4.8-5.2,9.6-5.2h0.5l-0.3,2.9c0,0-0.9,0-1,0c-3.9,0-7,2.2-8.9,6v15.7h-3.2
		V210.6z"/>
	<path class="st1" d="M87,229.1c0-4.8,4.1-8.2,16.3-10.1v-1.2c0-3.3-1.7-4.9-4.9-4.9c-3.8,0-6.5,1.6-9,3.8l-1.7-2
		c2.9-2.7,6.2-4.5,11-4.5c5.4,0,7.7,2.9,7.7,7.7v10.9c0,2.9,0.2,4.7,0.7,5.9h-3.2c-0.3-1-0.5-2.1-0.5-3.4c-2.8,2.5-5.9,3.8-9.5,3.8
		C89.5,235.2,87,232.9,87,229.1z M103.3,228.7v-7.5c-10.3,1.7-13.2,4.3-13.2,7.5c0,2.5,1.7,3.8,4.4,3.8
		C97.9,232.5,100.9,231.1,103.3,228.7z"/>
	<path class="st1" d="M113.5,210.6h3.2v3.8c2.3-2.3,5.4-4.3,9.2-4.3c4.8,0,7.2,2.7,7.2,7.1v17.4h-3.2v-16.8c0-3.4-1.5-5-4.8-5
		c-3.1,0-5.7,1.6-8.4,4.2v17.7h-3.2V210.6z"/>
	<path class="st1" d="M138.4,230.9l2-1.8c1.8,2.1,4.2,3.5,7.5,3.5c4.1,0,6.3-1.5,6.3-4.2c0-2.7-1.9-3.7-6.6-4.8
		c-5.5-1.4-8.4-2.8-8.4-7c0-3.4,3-6.3,8.2-6.3c4.1,0,6.8,1.4,8.9,3.5l-1.8,2.1c-1.8-1.8-4.1-3-7-3c-3.8,0-5.2,1.7-5.2,3.6
		c0,2.3,1.6,3.3,5.9,4.3c6,1.5,9.2,2.9,9.2,7.6c0,4.4-3.9,6.9-9.4,6.9C143.6,235.2,140.2,233.4,138.4,230.9z"/>
	<path class="st1" d="M163.2,210.6h3.2v3.4c1.9-2.1,4.4-3.9,8.1-3.9c5.5,0,9.9,4.1,9.9,12.5s-4.4,12.5-10.2,12.5
		c-3.1,0-5.6-1.5-7.8-3.7v12.4h-3.2V210.6z M181.2,222.7c0-6.7-3.3-9.8-7.3-9.8c-3,0-5.2,1.6-7.5,4v11.7c2.4,2.5,4.7,3.9,7.5,3.9
		C178.1,232.5,181.2,229.5,181.2,222.7z"/>
	<path class="st1" d="M189,222.7c0-8.1,5-12.5,10.9-12.5c5.9,0,10.9,4.5,10.9,12.5c0,8-5,12.5-10.9,12.5
		C194,235.2,189,230.7,189,222.7z M207.6,222.7c0-5.3-2.7-9.8-7.7-9.8c-4.9,0-7.8,4.1-7.8,9.8c0,5.4,2.6,9.9,7.8,9.9
		C204.8,232.5,207.6,228.5,207.6,222.7z"/>
	<path class="st1" d="M216.7,210.6h3.2v4.8h0.1c1.9-3,4.8-5.2,9.6-5.2h0.5l-0.3,2.9c0,0-0.9,0-1,0c-3.9,0-7,2.2-8.9,6v15.7h-3.2
		V210.6z"/>
	<path class="st1" d="M236.5,229.1v-15.8h-4.2v-2.7h4.2V202h3.2v8.6h6.3v2.7h-6.3v15.1c0,2.6,0.8,3.9,3.8,3.9c0.9,0,1.8-0.1,2.5-0.3
		v2.7c-0.7,0.1-2,0.3-3.1,0.3C238.2,235.1,236.5,233.3,236.5,229.1z"/>
	<path class="st1" d="M262.5,200.9h11.3c7.4,0,11.9,3,11.9,9.2c0,6.8-5,9.6-12.2,9.6h-7.7v15h-3.2V200.9z M273.7,216.8
		c5.6,0,8.7-1.7,8.7-6.6c0-4.6-3.1-6.4-8.7-6.4h-7.9v13H273.7z"/>
	<path class="st1" d="M290.3,210.6h3.2v4.8h0.1c1.9-3,4.8-5.2,9.6-5.2h0.5l-0.3,2.9c0,0-0.9,0-1,0c-3.9,0-7,2.2-8.9,6v15.7h-3.2
		V210.6z"/>
	<path class="st1" d="M305.8,222.7c0-8.1,5-12.5,10.9-12.5c5.9,0,10.9,4.5,10.9,12.5c0,8-5,12.5-10.9,12.5S305.8,230.7,305.8,222.7z
		 M324.5,222.7c0-5.3-2.7-9.8-7.7-9.8c-4.9,0-7.8,4.1-7.8,9.8c0,5.4,2.6,9.9,7.8,9.9C321.6,232.5,324.5,228.5,324.5,222.7z"/>
	<path class="st1" d="M330,243.8v-2.5c0.4,0.1,0.9,0.2,1.4,0.2c1.5,0,2.4-0.8,2.4-2.7v-28.1h3.2v28.1c0,3.3-1.4,5.2-5.1,5.2
		C331.4,243.9,330.4,243.8,330,243.8z M333.7,201.7h3.3v3.4h-3.3V201.7z"/>
	<path class="st1" d="M343.2,222.7c0-8.6,5.5-12.5,10.6-12.5c5.6,0,9.8,4.3,9.8,12.5v0.6h-17.3c0,5.9,3.4,9.3,7.6,9.3
		c3.6,0,5.7-1.6,7.5-4.4l2,1.6c-2.1,3.4-5.1,5.5-9.7,5.5C348.1,235.2,343.2,230.9,343.2,222.7z M360.5,220.8c-0.3-4.6-2.5-8-6.8-8
		c-3.5,0-6.7,2.5-7.3,8H360.5z"/>
	<path class="st1" d="M368.1,222.7c0-8.6,5.4-12.5,10.8-12.5c5.2,0,7.7,3.1,9.2,6.6l-2.7,1.2c-1.3-3.3-3.2-5.1-6.6-5.1
		c-3.6,0-7.5,2.6-7.5,9.8c0,6.3,3.2,9.9,7.4,9.9c3.3,0,5.2-1.6,6.9-5.1l2.6,1.1c-1.9,4.1-4.7,6.7-9.6,6.7
		C373,235.2,368.1,230.7,368.1,222.7z"/>
	<path class="st1" d="M395.5,229.1v-15.8h-4.2v-2.7h4.2V202h3.2v8.6h6.3v2.7h-6.3v15.1c0,2.6,0.8,3.9,3.8,3.9c0.9,0,1.8-0.1,2.5-0.3
		v2.7c-0.7,0.1-2,0.3-3.1,0.3C397.2,235.1,395.5,233.3,395.5,229.1z"/>
</g>
<g>
</g>
<g>
</g>
<g>
</g>
<g>
</g>
<g>
</g>
<g>
</g>
</svg>
